…
psu_diversity_rel_abun_unnest = psu_diversity_rel_abun %>%
  unnest(richness,simpson,shannon) %>%
  unnest(data)

psu_div_rel = psu_diversity_rel_abun_unnest %>% 
  select(YEAR, PRIMARY_SAMPLE_UNIT, STRAT, richness, simpson, shannon) %>%
  group_by(YEAR, PRIMARY_SAMPLE_UNIT, STRAT) %>%
  summarize(
    richness = first(richness),
    simpson = first(simpson),
    shannon = first(shannon))

# A tibble: 4,839 x 6
#     YEAR PRIMARY_SAMPLE_UNIT STRAT richness   simpson  shannon
#    <int>               <chr> <chr>    <int>     <dbl>    <dbl>
#  1  1999                001U  FMLR       49 10.784669 19.02063
#  2  1999                002U  FMLR       42  4.322159 10.35351
#  3  1999                003U  FMLR       46  6.607255 14.41026
#  4  1999                004U  FSLR       67  9.911565 16.41751
#  5  1999                005U  HRRF       63  8.981397 15.61857
#  6  1999                006U  FMLR       65 12.358859 19.01685
#  7  1999                007U  HRRF       54  9.387404 17.15362
#  8  1999                008U  FMLR       47  8.938282 16.81934
#  9  1999                009U  FMLR       47  8.426184 15.56927
# 10  1999                010U  FMLR       44  9.264376 16.35954
# ... with 4,829 more rows
…
